<?xml version="1.0" encoding="UTF-8" standalone="no"?>
<!-- Created with Inkscape (http://www.inkscape.org/) -->

<svg
   xmlns:osb="http://www.openswatchbook.org/uri/2009/osb"
   xmlns:dc="http://purl.org/dc/elements/1.1/"
   xmlns:cc="http://creativecommons.org/ns#"
   xmlns:rdf="http://www.w3.org/1999/02/22-rdf-syntax-ns#"
   xmlns:svg="http://www.w3.org/2000/svg"
   xmlns="http://www.w3.org/2000/svg"
   xmlns:sodipodi="http://sodipodi.sourceforge.net/DTD/sodipodi-0.dtd"
   xmlns:inkscape="http://www.inkscape.org/namespaces/inkscape"
   id="svg2"
   version="1.1"
   inkscape:version="0.92.4 (5da689c313, 2019-01-14)"
   xml:space="preserve"
   width="1469.9982"
   height="330.66666"
   viewBox="0 0 1469.9982 330.66666"
   sodipodi:docname="faunalia.svg"
   inkscape:export-filename="/home/paolo/Immagini/Loghi/Faunalia_2011/Faunalia_2016.svg.png"
   inkscape:export-xdpi="26.775688"
   inkscape:export-ydpi="26.775688"><metadata
     id="metadata8"><rdf:RDF><cc:Work
         rdf:about=""><dc:format>image/svg+xml</dc:format><dc:type
           rdf:resource="http://purl.org/dc/dcmitype/StillImage" /><dc:title></dc:title></cc:Work></rdf:RDF></metadata><defs
     id="defs6"><linearGradient
       id="linearGradient5644"
       osb:paint="solid"><stop
         style="stop-color:#ff00ff;stop-opacity:1;"
         offset="0"
         id="stop5646" /></linearGradient></defs><sodipodi:namedview
     pagecolor="#ffffff"
     bordercolor="#666666"
     borderopacity="1"
     objecttolerance="10"
     gridtolerance="10"
     guidetolerance="10"
     inkscape:pageopacity="0"
     inkscape:pageshadow="2"
     inkscape:window-width="1280"
     inkscape:window-height="664"
     id="namedview4"
     showgrid="false"
     inkscape:snap-grids="true"
     inkscape:zoom="0.35355806"
     inkscape:cx="589.41705"
     inkscape:cy="114.44046"
     inkscape:window-x="0"
     inkscape:window-y="0"
     inkscape:window-maximized="1"
     inkscape:current-layer="g10"
     fit-margin-top="0"
     fit-margin-left="0"
     fit-margin-right="0"
     fit-margin-bottom="0" /><g
     id="g10"
     inkscape:groupmode="layer"
     inkscape:label="ink_ext_XXXXXX"
     transform="matrix(1.25,0,0,-1.25,0,333.75335)"><g
       id="g879"
       transform="matrix(3.6028292,0,0,3.6028292,0,-694.96232)"><g
         transform="matrix(0.3484646,0,0,0.3484646,0,173.96169)"
         id="g858"><path
           inkscape:connector-curvature="0"
           id="path14"
           style="fill:#129300;fill-opacity:1;fill-rule:evenodd;stroke:none"
           d="m 259.977,142.753 c 1.108,-0.1 2.216,-0.201 3.325,-0.302 0,-0.101 0,-0.201 0,-0.302 1.107,0 2.217,0 3.324,0 0,-0.101 0,-0.202 0,-0.302 0.706,0 1.411,0 2.116,0 0,-0.101 0,-0.202 0,-0.303 0.202,0.101 0.404,0.202 0.605,0.303 2.551,0.248 7.157,0.243 8.766,0 1.009,0.1 2.016,0.201 3.024,0.302 0,-0.101 0,-0.202 0,-0.302 0.604,0 1.209,0 1.813,0 0,-0.101 0,-0.202 0,-0.303 0.706,0 1.411,0 2.116,0 0,-0.101 0,-0.202 0,-0.302 1.109,0 2.217,0 3.327,0 0,-0.101 0,-0.202 0,-0.303 0.402,0 0.805,0 1.208,0 0,-0.1 0,-0.201 0,-0.302 1.108,0 2.217,0 3.326,0 0,-0.1 0,-0.201 0,-0.302 0.906,0 1.813,0 2.72,0 0,-0.101 0,-0.202 0,-0.302 0.403,0 0.806,0 1.209,0 0,-0.101 0,-0.202 0,-0.302 1.008,0 2.015,0 3.024,0 0,-0.102 0,-0.202 0,-0.303 1.41,0.201 2.821,0.403 4.231,0.605 3.423,-0.866 8.108,-0.833 11.488,-1.814 0.806,0 1.612,0 2.418,0 1.424,-0.475 2.431,-1.597 4.232,-1.814 0.22,-0.835 0.084,-0.676 0.907,-0.907 0.25,-1.002 1.309,-1.505 0.907,-3.023 -0.101,0 -0.202,0 -0.302,0 0,-0.705 0,-1.411 0,-2.116 -0.101,0 -0.201,0 -0.302,0 0,-0.201 0,-0.403 0,-0.605 -0.102,0 -0.202,0 -0.303,0 -0.219,-0.435 -1.065,-3.309 -0.907,-3.929 0.102,0 0.202,0 0.303,0 0,-0.605 0,-1.209 0,-1.815 0.1,0 0.201,0 0.302,0 0,-0.099 0,-0.201 0,-0.301 -0.101,0 -0.202,0 -0.302,0 -0.101,-0.202 -0.201,-0.404 -0.303,-0.605 0.202,0 0.403,0 0.605,0 -0.189,-0.93 -0.483,-1.047 -0.605,-2.116 -0.201,0 -0.402,0 -0.604,0 -0.059,-0.89 -0.406,-1.774 -0.605,-2.418 0,-0.605 0,-1.21 0,-1.815 -0.101,0 -0.201,0 -0.302,0 -0.202,-0.604 -0.403,-1.209 -0.604,-1.813 -0.102,0 -0.202,0 -0.303,0 0,-0.302 0,-0.605 0,-0.906 -0.202,-0.102 -0.403,-0.202 -0.604,-0.303 0,-0.201 0,-0.403 0,-0.605 -0.102,0 -0.202,0 -0.303,0 0,-0.201 0,-0.403 0,-0.605 -0.101,0 -0.201,0 -0.302,0 0,-0.402 0,-0.806 0,-1.209 -0.101,0 -0.201,0 -0.303,0 0,-0.806 0,-1.612 0,-2.418 -0.1,0 -0.201,0 -0.302,0 0,-0.806 0,-1.612 0,-2.418 -0.101,0 -0.202,0 -0.302,0 0,-0.807 0,-1.613 0,-2.419 -0.101,0 -0.201,0 -0.303,0 0,-1.007 0,-2.015 0,-3.022 -0.201,-0.102 -0.402,-0.202 -0.604,-0.303 0,-0.303 0,-0.605 0,-0.907 -0.101,0 -0.202,0 -0.302,0 0,-0.302 0,-0.6051 0,-0.9071 -0.101,0 -0.202,0 -0.302,0 0,-0.7058 0,-1.4109 0,-2.116 -0.101,0 -0.202,0 -0.303,0 -0.101,-0.4027 -0.202,-0.8059 -0.302,-1.2098 -0.101,0 -0.202,0 -0.302,0 0,-0.3011 0,-0.6031 0,-0.9062 -0.102,0 -0.201,0 -0.303,0 0.066,-0.6359 0.45,-1.8008 0,-2.7207 -0.201,-0.1 -0.403,-0.2012 -0.604,-0.3024 0,-0.2019 0,-0.4027 0,-0.6039 -0.202,-0.1007 -0.404,-0.2019 -0.605,-0.3031 -0.1,-1.5109 -0.202,-3.0226 -0.303,-4.534 -0.1,0 -0.201,0 -0.302,0 0,-0.3027 0,-0.6047 0,-0.9066 -0.1,0 -0.201,0 -0.302,0 -0.101,-0.4031 -0.201,-0.807 -0.302,-1.2102 -0.101,0 -0.202,0 -0.303,0 0,-0.3019 0,-0.605 0,-0.9058 -0.1,0 -0.202,0 -0.301,0 -0.102,-1.209 -0.202,-2.4192 -0.303,-3.6282 -0.101,0 -0.202,0 -0.302,0 -0.34,-0.4832 -0.415,-0.5171 -0.605,-1.2089 -1.971,-0.1871 -3.746,-1.4602 -5.442,-0.9063 0,-0.3027 0,-0.6058 0,-0.9078 -2.115,-0.302 -4.232,-0.6051 -6.347,-0.907 -0.102,-0.2008 -0.202,-0.402 -0.303,-0.6039 -0.201,0 -0.402,0 -0.605,0 0,-0.1012 0,-0.2032 0,-0.302 -0.214,-0.0922 -0.5,0.4117 -1.209,0 -0.1,-0.2019 -0.202,-0.4031 -0.301,-0.6051 -0.303,0 -0.606,0 -0.908,0 -0.719,-0.3332 -0.957,-0.8531 -2.117,-0.907 0,0.1012 0,0.2012 0,0.302 -0.099,0 -0.201,0 -0.301,0 0,-0.2008 0,-0.4032 0,-0.6051 -2.004,-0.05 -4.22,-0.6957 -5.744,-1.209 -0.504,0 -1.007,0 -1.511,0 0,-0.1 0,-0.2008 0,-0.302 -0.504,0 -1.008,0 -1.511,0 0,-0.1007 0,-0.2007 0,-0.3019 -0.303,0 -0.606,0 -0.907,0 0,-0.1012 0,-0.202 0,-0.302 -0.404,0 -0.807,0 -1.21,0 0,-0.1011 0,-0.2019 0,-0.3031 -0.201,0 -0.403,0 -0.605,0 0,-0.1 0,-0.2019 0,-0.3019 -0.504,0 -1.008,0 -1.511,0 0,-0.1008 0,-0.2008 0,-0.302 -0.202,0 -0.403,0 -0.604,0 0,-0.102 0,-0.202 0,-0.3031 -1.108,-0.2008 -2.218,-0.4028 -3.325,-0.6039 0,-0.2008 0,-0.4039 0,-0.6051 -1.185,-0.082 -1.884,-0.6098 -2.722,-0.907 -0.201,0.1011 -0.402,0.2023 -0.604,0.3031 0,-0.1008 0,-0.202 0,-0.3031 -0.403,-0.1008 -0.807,-0.2008 -1.209,-0.302 0,-0.1 0,-0.2019 0,-0.3019 -0.504,0 -1.008,0 -1.512,0 0,-0.1008 0,-0.2032 0,-0.302 -0.402,-0.102 -0.806,-0.202 -1.209,-0.3031 0,-0.1008 0,-0.2008 0,-0.302 -0.807,0 -1.612,0 -2.419,0 0,-0.1008 0,-0.2019 0,-0.3019 -0.402,0 -0.806,0 -1.209,0 0,-0.1008 0,-0.202 0,-0.3032 -0.201,0 -0.402,0 -0.604,0 0,-0.1007 0,-0.2007 0,-0.3019 -0.202,0.1012 -0.404,0.2012 -0.605,0.3019 0,-0.1007 0,-0.2007 0,-0.3019 -0.202,0 -0.403,0 -0.604,0 0,-0.102 0,-0.2008 0,-0.3027 -0.302,0 -0.605,0 -0.908,0 0,-0.1 0,-0.2012 0,-0.3024 -0.604,0 -1.209,0 -1.813,0 0,-0.0996 0,-0.2019 0,-0.3019 -0.504,0 -1.008,0 -1.512,0 -1.776,-0.5489 -2.927,-0.92 -4.837,-0.6047 0,-0.2012 0,-0.4032 0,-0.6043 -0.906,0 -1.813,0 -2.72,0 0,-0.1008 0,-0.202 0,-0.302 -0.302,0.1 -0.605,0.2012 -0.907,0.302 0,-0.1008 0,-0.202 0,-0.302 -1.108,-0.1008 -2.217,-0.2019 -3.325,-0.3027 0,-0.1 0,-0.2012 0,-0.3024 -0.102,0 -0.201,0 -0.303,0 0,0.1012 0,0.2024 0,0.3024 -0.1,0 -0.201,0 -0.301,0 0,-0.1 0,-0.2012 0,-0.3024 -0.404,0 -0.807,0 -1.21,0 0,-0.1007 0,-0.2019 0,-0.3019 -0.503,0 -1.007,0 -1.511,0 0,-0.102 0,-0.2008 0,-0.3027 -0.403,0 -0.807,0 -1.21,0 0,-0.1 0,-0.2012 0,-0.302 -0.503,0.1008 -1.007,0.202 -1.512,0.302 0,-0.1 0,-0.2012 0,-0.302 -0.402,-0.1012 -0.806,-0.2012 -1.208,-0.3023 0,-0.1008 0,-0.202 0,-0.3028 -0.566,-0.1801 -0.907,0.3028 -0.907,0.3028 0,0 -2.514,-0.2411 -2.721,-0.3028 0,-0.1 0,-0.2011 0,-0.3019 -0.604,0 -1.209,0 -1.814,0 0,-0.1 0,-0.2012 0,-0.3032 -0.403,0 -0.806,0 -1.209,0 0,-0.0992 0,-0.2011 0,-0.3011 -0.201,0.1 -0.403,0.2019 -0.605,0.3011 -0.287,-0.1781 -0.142,-0.4718 -0.604,-0.6039 -0.404,0.1379 0.122,0.2481 -0.302,0.3028 0,-0.1008 0,-0.2028 0,-0.3028 -0.504,0 -1.009,0 -1.512,0 -0.418,-0.0921 0.122,-0.2461 -0.302,-0.3019 -0.133,0.0668 -0.209,0.5226 -0.908,0.3019 0,-0.1011 0,-0.2011 0,-0.3019 -0.201,0 -0.402,0 -0.603,0 0,-0.1 0,-0.2024 0,-0.3024 -0.907,0 -1.815,0 -2.722,0 0,-0.1007 0,-0.2027 0,-0.3019 -0.201,0 -0.402,0 -0.604,0 0,-0.102 0,-0.2027 0,-0.3027 -1.208,0 -2.418,0 -3.627,0 0,-0.1012 0,-0.2012 0,-0.302 -1.209,0.1008 -2.419,0.2008 -3.628,0.302 0,-0.1012 0,-0.2012 0,-0.302 -1.613,0 -3.225,0 -4.837,0 0,0.1008 0,0.2008 0,0.302 -0.101,0 -0.201,0 -0.302,0 0,-0.1012 0,-0.2012 0,-0.302 -1.516,-0.3062 -1.683,0.7039 -2.116,-0.3031 -4.03,0 -8.062,0 -12.092,0 -1.723,-0.4781 -5.842,-0.6281 -7.558,0 0.101,-0.2012 0.202,-0.4031 0.303,-0.6039 -1.612,0 -3.225,0 -4.837,0 -0.617,-0.5492 -2.509,-0.3032 -3.628,-0.3032 -3.095,0 -5.316,-0.466 -7.859,0.3032 -3.124,-0.1012 -6.248,-0.2012 -9.372,-0.3032 0,-0.1 0,-0.2011 0,-0.3019 -0.605,0 -1.209,0 -1.814,0 -2.228,0.6449 -5.198,0.6051 -8.161,0.6051 -1.31,0 -2.621,0 -3.93,0 -0.968,0.2886 -4.989,1.3039 -6.348,0.907 0,-0.1012 0,-0.2023 0,-0.3031 -1.713,0 -3.427,0 -5.14,0 0,0.1008 0,0.2019 0,0.3031 -0.906,0 -1.814,0 -2.72,0 0,0.1008 0,0.2008 0,0.302 -0.605,0 -1.21,0 -1.814,0 -3.471,-0.9 -12.413,-0.302 -17.534,-0.302 -1.611,0 -3.224,0 -4.836,0 -0.094,0.0227 -0.085,0.3969 -0.605,0.302 0,-0.1012 0,-0.2012 0,-0.302 -2.216,0.1008 -4.434,0.2008 -6.65,0.302 0,0.1 0,0.2007 0,0.3027 -0.303,0 -0.605,0 -0.907,0 0,0.0992 0,0.2012 0,0.3019 -0.945,0.2981 -1.434,-0.3019 -2.116,-0.3019 -0.694,-8e-4 -1.157,0.582 -2.116,0.3019 0,-0.1007 0,-0.2027 0,-0.3019 -0.605,-0.102 -1.209,-0.2027 -1.8137,-0.3027 0,0.1 0,0.2007 0,0.3027 -0.4032,0 -0.8063,0 -1.2098,0 0,0.0992 0,0.2012 0,0.3019 -0.8063,0 -1.6121,0 -2.418,0 -0.7055,0.1 -1.4109,0.2024 -2.116,0.3024 0,-0.1 0,-0.2024 0,-0.3024 -0.6047,0 -1.2098,0 -1.8141,0 0,-0.1007 0,-0.2027 0,-0.3019 -0.3023,0 -0.6046,0 -0.9066,0 0,-0.102 0,-0.2027 0,-0.3027 -0.6051,0 -1.2098,0 -1.8141,0 0,-0.1012 0,-0.2012 0,-0.302 -1.3101,0 -2.6203,0 -3.9297,0 0,0.1008 0,0.2008 0,0.302 -0.1003,0 -0.2015,0 -0.3023,0 0,-0.1012 0,-0.2012 0,-0.302 -2.5187,0 -5.0391,0 -7.5574,0 0,-0.1012 0,-0.2023 0,-0.3031 -1.3102,0 -2.6203,0 -3.9297,0 -0.0949,0.023 -0.0836,0.4008 -0.6051,0.3031 0,-0.1012 0,-0.2023 0,-0.3031 -0.5035,0 -1.0078,0 -1.5113,0 -0.0984,-0.0242 -0.0809,-0.3992 -0.6051,-0.302 -7.2769,1.3528 -15.4012,1.9699 -22.6719,3.325 -0.5039,-0.1 -1.0078,-0.2011 -1.5117,-0.3019 0,-0.1 0,-0.2012 0,-0.3032 -1.8133,0.102 -3.6277,0.2032 -5.4414,0.3032 0,0.1008 0,0.2019 0,0.3019 -0.3019,0 -0.6043,0 -0.9066,0 -0.2016,0.3028 -0.4028,0.6051 -0.6043,0.9071 -0.1008,0 -0.202,0 -0.3028,0 0,-0.1 0,-0.2012 0,-0.302 -0.4031,0.1008 -0.8058,0.202 -1.2089,0.302 0,0.1019 0,0.2007 0,0.3027 -2.0153,0.2012 -4.0309,0.4031 -6.0461,0.6043 0,0.1008 0,0.2019 0,0.3027 -0.4028,0.1 -0.8063,0.2012 -1.2094,0.302 0,0.1 0,0.2011 0,0.3031 -0.6039,0.0988 -1.209,0.2012 -1.8137,0.3012 0,0.1008 0,0.2019 0,0.3019 -3.8285,0.4028 -7.6586,0.8071 -11.4871,1.2098 0,-0.2008 0,-0.4027 0,-0.6051 -1.4965,-0.0207 -3.8027,0.1383 -4.8367,0.6051 -1.0106,0.4562 -0.7742,0.9961 -2.4184,1.209 -0.2511,1.0601 -0.76912,1.6883 -0.90701,3.023 -0.20117,0 -0.40273,0 -0.60468,0 -0.10078,0.302 -0.20157,0.6051 -0.30196,0.9071 -0.10117,0 -0.20156,0 -0.30234,0 0,0.3019 0,0.605 0,0.907 -0.10117,0 -0.20156,0 -0.30234,0 -0.34414,0.3441 -7.9e-4,0.1199 -0.60508,0.3019 0,0.202 0,0.4032 0,0.6039 -0.30196,0.2024 -0.6043,0.4043 -0.90664,0.6051 -0.10039,0.302 -0.20157,0.6051 -0.30196,0.9071 -0.20195,0 -0.40312,0 -0.60468,0 -0.10078,0.2011 -0.20157,0.4031 -0.30274,0.605 -0.20117,0 -0.40273,0 -0.60429,0 -0.20118,0.302 -0.40313,0.6051 -0.60469,0.9071 -0.30235,0.1 -0.6043,0.2019 -0.90664,0.3019 0,0.302 0,0.6039 0,0.907 -0.10078,0 -0.20117,0 -0.30235,0 0,0.202 0,0.4032 0,0.604 -0.10117,0 -0.20156,0 -0.30234,0 0,0.3031 0,0.6058 0,0.907 -0.10117,0 -0.20156,0 -0.30234,0 0,0.2012 0,0.4039 0,0.6051 -0.30196,0.2007 -0.60469,0.4031 -0.90704,0.605 0,0.7039 0,1.4098 0,2.1161 -0.20117,0.1007 -0.40273,0.2007 -0.604683,0.3019 0,0.7051 0,1.4098 0,2.1149 -0.100391,0 -0.201563,0 -0.301953,0 0.10039,0.3031 0.201562,0.605 0.301953,0.9082 -0.100391,0 -0.201563,0 -0.301953,0 0,0.2019 0,0.4027 0,0.6039 -0.101172,0 -0.201563,0 -0.302344,0 0.201172,3.325 0.403125,6.6519 0.604297,9.9769 -0.100391,0 -0.201563,0 -0.301953,0 0,-0.3031 0,-0.6051 0,-0.907 -0.101172,0 -0.201563,0 -0.302344,0 0.201172,1.6121 0.403125,3.2242 0.604297,4.8359 -0.100391,0 -0.201563,0 -0.301953,0 C 0.201172,100.129 0.100781,101.338 0,102.548 c 0.100781,0 0.201172,0 0.302344,0 0,0.907 0,1.814 0,2.72 0.10039,0 0.201562,0 0.301953,0 0,0.907 0,1.815 0,2.721 0.475393,1.645 0.861333,3.661 0.907033,5.744 0.66289,0.432 0.81172,1.09 1.51172,1.512 0,0.1 0,0.201 0,0.301 1.20898,0.302 2.41836,0.605 3.62734,0.908 l 0.30234,-0.303 c 0,0.101 0,0.202 0,0.303 -0.10078,0 -0.20117,0 -0.30234,0 0,0.1 0,0.201 0,0.301 0.10117,0 0.20156,0 0.30234,0 0,0.102 0,0.203 0,0.303 0.20157,0 0.40274,0 0.60508,0 0.10039,0.201 0.20117,0.403 0.30196,0.605 0.50351,0 1.00781,0 1.51132,0 0.30235,0.403 0.60508,0.806 0.90701,1.209 0.6043,0 1.209,0 1.8137,0 0,0.1 0,0.202 0,0.302 0.3027,0 0.6047,0 0.9066,0 0,0.101 0,0.202 0,0.302 0.3024,0 0.6051,0 0.9075,0 0,0.101 0,0.202 0,0.303 0.4027,0 0.8058,0 1.2089,0 0,0.1 0,0.202 0,0.302 0.504,0 1.0079,0 1.5114,0 0,0.101 0,0.202 0,0.302 0.5043,0 1.0078,0 1.5121,0 0,0.101 0,0.202 0,0.302 1.914,-0.1 3.8285,-0.201 5.743,-0.302 0,0.101 0,0.202 0,0.302 0.3027,0 0.605,0 0.907,0 0,0.102 0,0.202 0,0.303 0.6047,-0.101 1.2094,-0.201 1.8137,-0.303 0,-0.1 0,-0.201 0,-0.302 1.814,-0.1 3.6281,-0.201 5.4414,-0.302 0,0.101 0,0.202 0,0.302 1.0078,0 2.0152,0 3.023,0 0,0.101 0,0.202 0,0.302 0.3024,0 0.6051,0 0.907,0 0,0.102 0,0.202 0,0.303 1.1082,0 2.2168,0 3.325,0 0,0.101 0,0.201 0,0.303 0.8063,0 1.6125,0 2.4188,0 0,0.1 0,0.201 0,0.301 0.8058,0.102 1.6121,0.202 2.4183,0.303 0,0 0.2918,-0.452 0.9067,-0.303 0,0.102 0,0.202 0,0.303 0.5043,0 1.0074,0 1.5113,0 0,0.101 0,0.201 0,0.303 1.1086,0 2.2176,0 3.3258,0 0,0.099 0,0.201 0,0.302 1.3098,0.1 2.6195,0.201 3.9297,0.302 0,-0.101 0,-0.202 0,-0.302 0.5035,0 1.0078,0 1.5113,0 0,-0.101 0,-0.203 0,-0.302 0.711,-0.185 0.8152,0.346 1.209,0.302 0,-0.101 0,-0.203 0,-0.302 0.3023,0.099 0.6051,0.201 0.907,0.302 1.411,0 2.8219,0 4.2325,0 1.0785,0.321 2.6796,0.677 3.9296,0.906 0,0.101 0,0.202 0,0.303 -0.4027,0 -0.8058,0 -1.2089,0 0,0.1 0,0.202 0,0.301 0.4031,0 0.8062,0 1.2089,0 0,0.102 0,0.201 0,0.303 1.411,0 2.8219,0 4.2329,0 0,0.102 0,0.201 0,0.303 0.2007,0 0.4027,0 0.6042,0 0,0.1 0,0.2 0,0.302 0.4028,0 0.8063,0 1.209,0 0,0.1 0,0.202 0,0.302 2.6196,0 5.2399,0 7.8598,0 2.7203,0 5.4414,0 8.1621,0 0,-0.1 0,-0.202 0,-0.302 1.5113,0 3.0231,0 4.5344,0 0,0.1 0,0.202 0,0.302 2.6195,0 5.2402,0 7.8602,0 0,0.101 0,0.201 0,0.302 0.201,0 0.403,0 0.604,0 0.302,0.403 0.605,0.807 0.907,1.209 0.201,0 0.403,0 0.605,0 0,0.102 0,0.202 0,0.303 0.906,0 1.814,0 2.72,0 0,0.1 0,0.201 0,0.301 0.202,0 0.403,0 0.605,0 0.101,0.203 0.201,0.404 0.302,0.606 0.644,0.381 1.284,-0.007 2.116,0.302 0,0.1 0,0.202 0,0.302 0.202,0 0.403,0 0.604,0 0,0.101 0,0.202 0,0.302 1.613,0 3.226,0 4.838,0 3.526,0 7.054,0 10.58,0 0,-0.1 0,-0.201 0,-0.302 1.151,-0.386 1.254,-0.091 2.418,0 0,0.302 0,0.605 0,0.907 1.612,0.1 3.225,0.202 4.837,0.302 0.554,0.165 1.607,0.657 2.419,0.605 l 0.302,-0.302 c 0,0.101 0,0.201 0,0.302 0.302,0 0.604,0 0.907,0 0,0.101 0,0.201 0,0.302 0.604,0 1.209,0 1.813,0 0,0.101 0,0.202 0,0.302 1.612,0 3.225,0 4.837,0 2.318,0.101 4.636,0.203 6.953,0.303 0,0.101 0,0.201 0,0.302 0.302,0 0.605,0 0.907,0 0,0.101 0,0.201 0,0.303 2.721,0 5.441,0 8.162,0 0,0.1 0,0.201 0,0.301 0.302,0 0.605,0 0.907,0 0,0.102 0,0.203 0,0.303 0.907,0 1.814,0 2.721,0 1.31,0 2.619,0 3.93,0 0,0.101 0,0.202 0,0.302 0.1,0 0.201,0 0.301,0 0.669,-0.311 4.923,-0.66 6.046,-0.302 0,0.101 0,0.202 0,0.302 0.303,0 0.606,0 0.908,0 0,0.101 0,0.202 0,0.303 1.309,0 2.62,0 3.93,0 0,0.1 0,0.202 0,0.302 0.302,0 0.605,0 0.906,0 0,0.101 0,0.202 0,0.303 1.109,0 2.217,0 3.326,0 0,0.1 0,0.201 0,0.302 0.402,0 0.806,0 1.209,0 0,0.1 0,0.201 0,0.302 0.806,0 1.612,0 2.419,0 0,0.101 0,0.202 0,0.302 0.201,0 0.402,0 0.604,0 0,0.101 0,0.202 0,0.303 1.612,0 3.225,0 4.836,0 0,0.1 0,0.201 0,0.302 0.303,0 0.605,0 0.907,0 0,0.1 0,0.202 0,0.302 3.225,0 6.449,0 9.674,0 0,0.101 0,0.202 0,0.303 0.66,0.184 0.84,-0.183 1.209,-0.303 0,0.202 0,0.403 0,0.605 0,0 0.756,-0.319 1.209,-0.302 1.21,0.1 2.419,0.201 3.628,0.302 0.649,0.19 1.577,0.395 2.419,0.604 0,0.101 0,0.202 0,0.303 0.302,-0.101 0.603,-0.202 0.906,-0.303 1.109,0.101 2.217,0.202 3.325,0.303 0,-0.302 0,-0.605 0,-0.907 0.101,0 0.203,0 0.303,0 1.054,1.026 2.153,0.093 3.628,0.604 0,0.101 0,0.202 0,0.303 0.201,0 0.402,0 0.604,0 0,0.1 0,0.201 0,0.302 0.806,0 1.613,0 2.419,0 0,0.101 0,0.202 0,0.302 0.302,0 0.604,0 0.907,0 0,0.101 0,0.201 0,0.303 0.805,0 1.612,0 2.418,0 0,0.101 0,0.201 0,0.302 -0.345,0.345 -0.12,0.001 -0.303,0.604 1.501,-0.002 2.555,0.293 3.628,0.605 1.512,0.101 3.022,0.201 4.534,0.303 0,0.1 0,0.201 0,0.302 0.303,0 0.606,0 0.907,0 0,0.1 0,0.201 0,0.302 0.303,0 0.605,0 0.908,0 0,0.101 0,0.202 0,0.302 0.705,0 1.41,0 2.115,0 0,0.101 0,0.202 0,0.302 1.713,0 3.427,0 5.139,0 0,0.101 0,0.202 0,0.303 0.403,0 0.807,0 1.209,0 0,0.1 0,0.201 0,0.302 0.404,0 0.807,0 1.209,0 0,0.101 0,0.202 0,0.303 0.504,0 1.008,0 1.512,0 0,0.1 0,0.201 0,0.302 1.109,0.101 2.217,0.201 3.325,0.302 0,-0.101 0,-0.201 0,-0.302 0.102,0 0.201,0 0.303,0 0,0.101 0,0.201 0,0.302 0.402,0 0.806,0 1.209,0 0,0.101 0,0.202 0,0.302 0.403,-0.1 0.807,-0.201 1.209,-0.302 0,0.101 0,0.202 0,0.302 1.209,0 2.419,0 3.627,0 0,-0.1 0,-0.201 0,-0.302 0.202,0 0.404,0 0.605,0 0,-0.101 0,-0.201 0,-0.302 1.411,0 2.822,0 4.233,0 0,-0.101 0,-0.202 0,-0.302 0.403,-0.101 0.806,-0.202 1.209,-0.303 0,0.101 0,0.202 0,0.303 0.1,0 0.201,0 0.303,0 0,0.302 0,0.604 0,0.906" /><path
           inkscape:connector-curvature="0"
           id="path16"
           style="fill:#3fb83d;fill-opacity:1;fill-rule:evenodd;stroke:none"
           d="m 0.302344,102.246 c 0,-0.202 0,-0.404 0,-0.605 0.10039,0 0.201562,0 0.301953,0 0,0.201 0,0.403 0,0.605 -0.100391,0 -0.201563,0 -0.301953,0" /><path
           inkscape:connector-curvature="0"
           id="path18"
           style="fill:#3fb83d;fill-opacity:1;fill-rule:evenodd;stroke:none"
           d="m 0.302344,88.0371 c 0,-0.3019 0,-0.6039 0,-0.907 0.10039,0 0.201562,0 0.301953,0 0,0.3031 0,0.6051 0,0.907 -0.100391,0 -0.201563,0 -0.301953,0" /><path
           inkscape:connector-curvature="0"
           id="path20"
           style="fill:#435fb5;fill-opacity:1;fill-rule:evenodd;stroke:none"
           d="m 321.313,229.978 c 0.011,-0.302 0.023,-0.605 0.035,-0.906 0.201,0.007 0.403,0.015 0.604,0.023 0.255,-0.813 0.534,-0.901 0.964,-1.476 0.101,0.004 0.201,0.008 0.302,0.011 0.03,-0.805 0.061,-1.611 0.092,-2.417 -0.515,-0.611 -0.197,-1.643 -0.512,-2.439 -0.101,-0.004 -0.201,-0.008 -0.303,-0.011 0.008,-0.202 0.016,-0.404 0.023,-0.605 -0.197,-0.108 -0.395,-0.216 -0.592,-0.324 -0.25,-0.61 -0.082,-3.246 0.149,-3.927 0.101,0.003 0.201,0.007 0.302,0.011 0.031,-0.806 0.062,-1.611 0.093,-2.417 -0.201,-0.008 -0.404,-0.015 -0.606,-0.023 -0.081,-0.507 -0.162,-1.015 -0.243,-1.522 -0.198,-0.108 -0.395,-0.217 -0.593,-0.325 0.038,-1.007 0.076,-2.014 0.115,-3.02 -0.101,-0.004 -0.203,-0.008 -0.302,-0.012 0.008,-0.201 0.014,-0.403 0.023,-0.604 -0.101,-0.004 -0.202,-0.008 -0.302,-0.012 0.006,-0.201 0.014,-0.403 0.022,-0.604 -0.599,-1.245 -1.309,-1.825 -1.372,-3.683 -0.201,-0.007 -0.403,-0.015 -0.604,-0.023 0.004,-4.028 -0.873,-7.541 -0.76,-11.827 -0.202,-0.008 -0.404,-0.015 -0.605,-0.023 -0.077,-0.607 -0.155,-1.216 -0.233,-1.823 -0.1,-0.004 -0.201,-0.008 -0.302,-0.012 0.023,-0.604 0.047,-1.208 0.069,-1.812 -0.101,-0.005 -0.201,-0.008 -0.302,-0.012 0.011,-0.302 0.023,-0.604 0.034,-0.905 -0.1,-0.004 -0.201,-0.008 -0.301,-0.012 0.015,-0.404 0.03,-0.806 0.046,-1.209 -0.102,-0.004 -0.202,-0.008 -0.303,-0.012 -0.062,-1.01 -0.125,-2.021 -0.187,-3.032 -0.294,-0.212 -0.589,-0.426 -0.883,-0.638 -0.051,-1.313 -0.103,-2.626 -0.152,-3.939 -0.102,-0.003 -0.203,-0.007 -0.303,-0.011 0.019,-0.503 0.039,-1.006 0.057,-1.51 -0.1,-0.004 -0.201,-0.008 -0.301,-0.012 -0.086,-0.406 -0.172,-0.813 -0.257,-1.22 -0.101,-0.004 -0.201,-0.007 -0.302,-0.011 0.012,-0.302 0.023,-0.605 0.035,-0.907 -0.1,-0.003 -0.202,-0.007 -0.302,-0.011 -0.148,-1.417 -0.296,-2.835 -0.444,-4.253 -0.1,-0.004 -0.201,-0.008 -0.302,-0.011 -0.089,-0.305 -0.177,-0.611 -0.267,-0.917 -0.601,-0.124 -1.201,-0.248 -1.802,-0.372 0.004,-0.101 0.009,-0.201 0.012,-0.302 -0.201,-0.007 -0.403,-0.015 -0.605,-0.022 0.005,-0.101 0.009,-0.202 0.012,-0.302 -0.302,-0.012 -0.604,-0.024 -0.906,-0.035 0.004,-0.1 0.008,-0.201 0.011,-0.302 -1.2,-0.248 -2.401,-0.495 -3.601,-0.742 -0.094,-0.206 -0.186,-0.411 -0.279,-0.616 -0.706,-0.027 -1.411,-0.053 -2.115,-0.08 0.004,-0.101 0.008,-0.202 0.012,-0.302 -0.603,-0.024 -1.209,-0.046 -1.812,-0.069 0.003,-0.101 0.006,-0.202 0.011,-0.303 -0.302,-0.011 -0.604,-0.023 -0.907,-0.034 0.005,-0.101 0.008,-0.201 0.012,-0.302 -0.303,-0.011 -0.604,-0.023 -0.907,-0.034 0.004,-0.101 0.008,-0.202 0.012,-0.303 -0.399,-0.115 -0.798,-0.232 -1.196,-0.348 0.004,-0.101 0.008,-0.201 0.011,-0.302 -0.302,-0.011 -0.605,-0.022 -0.907,-0.034 -0.092,-0.205 -0.185,-0.411 -0.279,-0.616 -0.302,-0.011 -0.604,-0.023 -0.906,-0.034 0.004,-0.101 0.008,-0.202 0.012,-0.303 -0.202,-0.007 -0.403,-0.015 -0.605,-0.023 0.004,-0.1 0.008,-0.201 0.012,-0.301 -0.302,-0.012 -0.604,-0.023 -0.906,-0.034 0.003,-0.102 0.007,-0.203 0.011,-0.303 -1.103,-0.142 -2.208,-0.285 -3.311,-0.428 0.004,-0.101 0.008,-0.202 0.011,-0.302 -0.503,-0.019 -1.006,-0.038 -1.51,-0.058 0.004,-0.101 0.008,-0.202 0.011,-0.302 -0.502,-0.019 -1.006,-0.038 -1.509,-0.058 0.004,-0.1 0.007,-0.201 0.01,-0.302 -0.301,-0.011 -0.603,-0.023 -0.906,-0.034 0.004,-0.101 0.008,-0.201 0.012,-0.302 -0.504,-0.019 -1.007,-0.038 -1.511,-0.057 0.005,-0.102 0.008,-0.203 0.012,-0.303 -0.303,-0.011 -0.604,-0.023 -0.906,-0.034 0.004,-0.1 0.007,-0.202 0.011,-0.303 -0.302,-0.011 -0.604,-0.023 -0.906,-0.034 0.004,-0.1 0.008,-0.2 0.011,-0.302 -0.903,-0.135 -1.805,-0.271 -2.706,-0.405 0.003,-0.1 0.007,-0.202 0.011,-0.303 -0.203,-0.007 -0.403,-0.015 -0.604,-0.023 0.003,-0.1 0.007,-0.2 0.012,-0.301 -0.505,-0.019 -1.007,-0.039 -1.511,-0.058 0.003,-0.101 0.007,-0.201 0.012,-0.301 -0.202,-0.008 -0.404,-0.016 -0.605,-0.024 0.004,-0.101 0.008,-0.202 0.012,-0.303 -0.202,-0.007 -0.403,-0.014 -0.605,-0.022 -0.092,-0.205 -0.186,-0.41 -0.279,-0.615 -0.201,-0.008 -0.402,-0.015 -0.603,-0.023 0.004,-0.101 0.006,-0.202 0.011,-0.302 -0.605,-0.024 -1.209,-0.047 -1.813,-0.07 0.005,-0.1 0.008,-0.201 0.012,-0.302 -0.303,-0.011 -0.604,-0.022 -0.907,-0.034 0.004,-0.102 0.008,-0.202 0.012,-0.302 -0.201,-0.008 -0.403,-0.015 -0.604,-0.023 0.003,-0.101 0.007,-0.202 0.011,-0.302 -0.504,-0.019 -1.007,-0.039 -1.51,-0.058 0.004,-0.1 0.008,-0.201 0.011,-0.302 -0.201,-0.008 -0.403,-0.015 -0.604,-0.023 0.004,-0.1 0.008,-0.201 0.011,-0.302 -0.301,-0.011 -0.603,-0.023 -0.906,-0.034 0.003,-0.101 0.008,-0.202 0.012,-0.302 -0.902,-0.135 -1.805,-0.27 -2.707,-0.406 0.003,-0.1 0.008,-0.2 0.012,-0.301 -0.404,-0.016 -0.807,-0.031 -1.209,-0.047 0.004,-0.101 0.007,-0.202 0.011,-0.302 -0.201,-0.008 -0.403,-0.016 -0.604,-0.024 0.004,-0.099 0.008,-0.201 0.012,-0.302 -0.403,-0.014 -0.806,-0.03 -1.209,-0.045 0.005,-0.101 0.007,-0.201 0.011,-0.302 -0.503,-0.019 -1.006,-0.039 -1.51,-0.058 -0.092,-0.205 -0.186,-0.41 -0.279,-0.615 -0.201,-0.008 -0.402,-0.016 -0.604,-0.024 -0.286,-0.413 -0.573,-0.828 -0.86,-1.242 -1.611,-0.061 -3.222,-0.123 -4.834,-0.184 0.004,-0.101 0.009,-0.201 0.012,-0.301 -0.202,-0.008 -0.403,-0.016 -0.604,-0.024 0.004,-0.101 0.007,-0.202 0.011,-0.302 -0.906,-0.035 -1.812,-0.069 -2.717,-0.103 0.003,-0.101 0.006,-0.202 0.01,-0.303 -0.301,-0.011 -0.604,-0.023 -0.906,-0.034 0.004,-0.1 0.008,-0.202 0.012,-0.302 -1.612,-0.061 -3.223,-0.122 -4.833,-0.183 0.004,-0.101 0.007,-0.202 0.012,-0.303 -0.202,-0.008 -0.405,-0.015 -0.606,-0.023 0.004,-0.101 0.008,-0.201 0.012,-0.302 -0.6,-0.124 -1.2,-0.248 -1.801,-0.371 0.004,-0.101 0.008,-0.202 0.012,-0.302 -0.399,-0.116 -0.799,-0.232 -1.198,-0.349 0.004,-0.1 0.008,-0.2 0.012,-0.301 -1.409,-0.054 -2.819,-0.107 -4.229,-0.161 0.004,-0.101 0.007,-0.201 0.011,-0.302 -0.201,-0.008 -0.402,-0.016 -0.604,-0.023 0.004,-0.1 0.008,-0.201 0.012,-0.303 -2.316,-0.088 -4.632,-0.176 -6.948,-0.264 0.004,-0.1 0.008,-0.2 0.012,-0.301 -0.608,0.077 -1.217,0.155 -1.824,0.232 0.004,-0.1 0.008,-0.2 0.012,-0.301 -0.203,-0.008 -0.404,-0.016 -0.605,-0.024 0.003,-0.101 0.007,-0.201 0.011,-0.301 -1.007,-0.038 -2.014,-0.077 -3.021,-0.115 0.004,-0.101 0.008,-0.202 0.012,-0.303 -0.403,-0.016 -0.806,-0.031 -1.208,-0.046 0.004,-0.1 0.008,-0.201 0.012,-0.302 -4.129,-0.157 -8.258,-0.314 -12.386,-0.471 0.004,-0.101 0.008,-0.201 0.012,-0.302 -0.201,-0.007 -0.404,-0.015 -0.605,-0.022 0.005,-0.101 0.008,-0.203 0.012,-0.303 -2.719,-0.103 -5.439,-0.207 -8.156,-0.31 -1.41,-0.054 -2.82,-0.107 -4.23,-0.161 0.004,-0.1 0.009,-0.201 0.012,-0.302 -0.608,0.077 -1.216,0.156 -1.824,0.233 0,0 0.008,-0.302 -0.593,-0.325 l -0.314,0.291 c 0.004,-0.101 0.008,-0.202 0.012,-0.302 -0.201,-0.008 -0.402,-0.016 -0.604,-0.024 0.004,-0.101 0.008,-0.201 0.011,-0.301 -1.308,-0.05 -2.618,-0.1 -3.926,-0.15 0.004,-0.101 0.007,-0.201 0.011,-0.302 -0.301,-0.011 -0.604,-0.023 -0.906,-0.034 0.004,-0.101 0.008,-0.202 0.012,-0.303 -8.961,-0.341 -17.925,-0.682 -26.885,-1.022 0.003,-0.101 0.007,-0.202 0.011,-0.302 -0.403,-0.015 -0.806,-0.03 -1.208,-0.046 0.004,-0.101 0.008,-0.202 0.012,-0.302 -2.719,-0.104 -5.439,-0.207 -8.157,-0.31 -1.209,-0.046 -2.417,-0.092 -3.625,-0.139 -0.004,0.101 -0.008,0.202 -0.011,0.303 -0.302,-0.012 -0.605,-0.023 -0.907,-0.035 -0.004,0.101 -0.008,0.202 -0.011,0.302 -3.122,-0.119 -6.244,-0.238 -9.365,-0.356 -2.316,-0.089 -4.632,-0.176 -6.948,-0.265 0.004,-0.1 0.008,-0.201 0.012,-0.301 -0.902,-0.136 -1.805,-0.271 -2.707,-0.406 0.004,-0.1 0.007,-0.201 0.011,-0.302 -0.809,0.07 -1.619,0.14 -2.428,0.21 -2.315,-0.088 -4.633,-0.176 -6.947,-0.264 -1.914,-0.073 -3.828,-0.145 -5.741,-0.218 -0.003,0.1 -0.007,0.201 -0.01,0.302 -0.303,-0.012 -0.605,-0.023 -0.907,-0.035 -0.004,0.101 -0.008,0.202 -0.011,0.302 -1.712,-0.065 -3.424,-0.13 -5.136,-0.196 -0.004,0.102 -0.008,0.203 -0.011,0.303 -0.202,-0.008 -0.403,-0.015 -0.604,-0.023 -0.004,0.101 -0.008,0.201 -0.012,0.302 -1.007,-0.038 -2.013,-0.076 -3.021,-0.114 -0.004,0.1 -0.007,0.2 -0.011,0.301 -0.302,-0.011 -0.604,-0.022 -0.907,-0.034 -0.004,0.101 -0.007,0.202 -0.011,0.302 -0.704,-0.027 -1.41,-0.054 -2.115,-0.081 -0.003,0.101 -0.007,0.202 -0.011,0.303 -0.303,-0.011 -0.604,-0.023 -0.906,-0.034 -0.003,0.1 -0.007,0.2 -0.012,0.301 -0.302,-0.011 -0.604,-0.023 -0.906,-0.034 -0.003,0.101 -0.007,0.201 -0.011,0.301 -1.108,-0.042 -2.216,-0.084 -3.323,-0.126 -0.004,0.101 -0.008,0.202 -0.012,0.303 -0.6037,-0.023 -1.2077,-0.046 -1.8123,-0.069 -0.0039,0.1 -0.0082,0.201 -0.0118,0.302 -1.7859,0.439 -4.5515,-0.738 -5.705,-1.125 -1.4051,-0.155 -2.8114,-0.309 -4.2176,-0.462 -0.0035,0.1 -0.0074,0.2 -0.011,0.301 -0.8058,-0.03 -1.6117,-0.061 -2.4168,-0.091 0.004,-0.101 0.0075,-0.202 0.0118,-0.302 -0.202,-0.008 -0.4032,-0.016 -0.6047,-0.024 0.0039,-0.1 0.0074,-0.201 0.0113,-0.302 -0.6039,-0.023 -1.2078,-0.046 -1.8121,-0.069 0.0039,-0.1 0.0074,-0.201 0.0113,-0.302 -0.2008,-0.007 -0.4027,-0.015 -0.6035,-0.023 0.0035,-0.101 0.0067,-0.201 0.0109,-0.302 -3.5242,-0.134 -7.0484,-0.268 -10.5722,-0.402 -1.7125,-0.065 -3.4246,-0.13 -5.136,-0.195 -0.0035,0.1 -0.0074,0.201 -0.0105,0.302 -0.3027,-0.012 -0.6047,-0.023 -0.9074,-0.035 -0.0035,0.101 -0.0074,0.202 -0.011,0.303 -1.1078,-0.042 -2.2156,-0.085 -3.323,-0.127 -0.0039,0.101 -0.0074,0.202 -0.0117,0.302 -0.2016,-0.007 -0.4024,-0.015 -0.6039,-0.023 -0.0035,0.1 -0.0078,0.201 -0.0118,0.302 -0.6082,0.078 -1.216,0.155 -1.8242,0.233 -0.1086,0.198 -0.216,0.395 -0.3242,0.593 -0.2016,-0.008 -0.4027,-0.015 -0.6047,-0.023 -0.0039,0.101 -0.0082,0.202 -0.0117,0.302 -0.9059,-0.035 -1.8125,-0.07 -2.7187,-0.104 -0.004,0.101 -0.0075,0.202 -0.0114,0.302 -0.2011,-0.007 -0.4027,-0.015 -0.6039,-0.022 -0.0039,0.101 -0.007,0.201 -0.0109,0.302 -2.5215,0.005 -5.0426,0.01 -7.5641,0.014 -0.5062,-0.159 -2.0285,-0.661 -3.0094,-0.416 -0.0035,0.101 -0.0074,0.201 -0.0117,0.302 -0.6039,-0.023 -1.2082,-0.047 -1.8125,-0.07 -0.0035,0.101 -0.0074,0.202 -0.0117,0.302 -0.3019,-0.011 -0.6035,-0.022 -0.9062,-0.034 -0.0036,0.1 -0.0075,0.201 -0.011,0.303 -0.2015,-0.008 -0.4027,-0.016 -0.6043,-0.023 -0.0035,0.1 -0.0074,0.201 -0.0105,0.301 -0.7098,0.075 -1.4188,0.148 -2.1274,0.222 -0.0039,0.101 -0.007,0.202 -0.0109,0.303 -0.8047,-0.031 -1.6113,-0.062 -2.4164,-0.093 -0.1086,0.197 -0.2168,0.395 -0.325,0.593 -1.1078,-0.042 -2.216,-0.084 -3.3231,-0.126 -0.1086,0.197 -0.2168,0.395 -0.3253,0.592 -0.2016,-0.008 -0.4028,-0.016 -0.6043,-0.023 -0.0036,0.101 -0.0075,0.202 -0.011,0.303 -0.2015,-0.008 -0.4031,-0.016 -0.6043,-0.023 -0.0039,0.1 -0.0074,0.201 -0.0113,0.302 -0.4031,-0.015 -0.8059,-0.031 -1.2086,-0.046 -0.0039,0.1 -0.007,0.2 -0.0109,0.301 -1.7161,0.037 -3.4321,0.072 -5.1477,0.107 -0.0035,0.101 -0.0074,0.202 -0.0117,0.302 -0.302,-0.012 -0.6035,-0.023 -0.9063,-0.034 -0.0035,0.101 -0.0074,0.201 -0.0105,0.302 -1.9176,0.028 -3.8348,0.056 -5.7512,0.083 0.0035,-0.1 0.0074,-0.2 0.0117,-0.301 -0.3027,-0.012 -0.6047,-0.023 -0.9062,-0.035 0.0035,-0.101 0.0074,-0.201 0.0105,-0.302 -1.0101,0.063 -2.0207,0.125 -3.032,0.188 -1.1539,0.337 -2.0953,1.399 -3.3922,1.686 -0.2262,0.919 -0.5293,0.666 -0.6375,0.882 -0.0191,0.503 -0.0383,1.007 -0.0582,1.51 -0.309,0.191 -0.6191,0.381 -0.9285,0.571 -0.70508,0.974 -0.0813,1.43 -1.57969,1.755 -0.00743,0.201 -0.01563,0.403 -0.02305,0.603 -0.30938,0.191 -0.61953,0.381 -0.92969,0.57 -0.11172,0.299 -0.22422,0.597 -0.33633,0.895 -0.20117,-0.008 -0.40312,-0.015 -0.60429,-0.023 -0.31719,0.391 -0.63438,0.783 -0.95235,1.174 -0.1,-0.004 -0.20078,-0.008 -0.30195,-0.012 -0.1082,0.199 -0.21602,0.396 -0.32461,0.593 -0.20117,-0.007 -0.40273,-0.014 -0.6043,-0.022 -0.44296,0.338 -1.22734,2.494 -1.33476,3.276 -0.20156,-0.007 -0.40274,-0.015 -0.60391,-0.023 -0.24765,1.201 -0.49531,2.402 -0.74258,3.602 -0.10078,-0.004 -0.20078,-0.008 -0.30195,-0.012 -0.14648,1.205 -0.29297,2.41 -0.43945,3.614 -0.10117,-0.003 -0.20156,-0.008 -0.30196,-0.011 0.12813,1.92 0.25704,3.841 0.38555,5.762 -0.17734,2.01 -0.3543,4.021 -0.53242,6.03 0.10117,0.004 0.20195,0.008 0.30234,0.012 0.25703,1.154 -0.509372,2.038 -0.707028,2.696 0.042969,1.514 0.086328,3.028 0.129297,4.542 0.100781,0.004 0.201951,0.008 0.301951,0.011 -0.03437,0.907 -0.06875,1.813 -0.10312,2.719 0.1,0.004 0.20117,0.008 0.30195,0.012 -0.01523,0.403 -0.03086,0.806 -0.04648,1.208 0.10156,0.004 0.20273,0.008 0.30273,0.012 -0.03437,0.906 -0.06875,1.812 -0.10312,2.719 0.3914,1.568 0.73593,3.201 1.96484,4.007 -0.00391,0.101 -0.0082,0.201 -0.01172,0.303 0.40313,0.014 0.80586,0.03 1.2082,0.045 -0.0039,0.101 -0.00742,0.201 -0.01132,0.302 1.1039,0.415 1.65976,-0.094 2.39375,0.696 0.33085,0.357 0.11992,0.006 0.27929,0.616 0.79766,0.232 1.59571,0.464 2.39375,0.696 0.18985,0.309 0.37973,0.62 0.56953,0.929 1.0027,0.139 2.0059,0.278 3.0094,0.417 -0.0078,0.202 -0.0153,0.403 -0.0238,0.604 1.1046,0.143 2.2085,0.286 3.3117,0.429 -0.0035,0.1 -0.0075,0.201 -0.011,0.302 0.302,0.011 0.6035,0.023 0.9067,0.034 -0.0039,0.101 -0.0086,0.202 -0.0117,0.302 1.5093,0.058 3.0207,0.115 4.5308,0.172 0.0035,-0.1 0.0074,-0.201 0.011,-0.302 0.1011,0.004 0.2023,0.008 0.3027,0.012 -0.0039,0.101 -0.0074,0.202 -0.0117,0.302 0.8054,0.03 1.6109,0.061 2.4172,0.092 -0.004,0.101 -0.0075,0.202 -0.0122,0.302 0.5114,0.107 0.525,-0.261 0.6157,-0.279 2.3234,-0.113 4.6472,-0.227 6.9707,-0.34 5.3226,1.753 11.6242,1.429 16.5226,3.049 0.7047,0.027 1.4102,0.054 2.1145,0.08 0.416,0.099 -0.132,0.252 0.2902,0.314 0.0039,-0.101 0.0074,-0.201 0.0117,-0.302 0.4036,0.015 0.8055,0.031 1.2086,0.046 -0.0039,0.1 -0.0082,0.201 -0.0121,0.302 1.2129,-0.055 2.4254,-0.109 3.6367,-0.165 3.0883,0.113 6.2164,0.451 7.8313,0.904 1.309,0.049 2.6183,0.099 3.9266,0.149 -0.0036,0.1 -0.0075,0.201 -0.011,0.302 0.4031,0.015 0.8055,0.031 1.2082,0.046 0.2871,0.414 0.5738,0.829 0.8598,1.243 0.2027,0.008 0.4035,0.015 0.6047,0.023 0.0929,0.204 0.1859,0.41 0.2793,0.615 0.3015,0.012 0.6043,0.023 0.9062,0.034 0.0926,0.206 0.186,0.412 0.2793,0.617 3.1203,0.118 6.243,0.237 9.3641,0.356 0.0929,0.205 0.1859,0.41 0.2789,0.615 1.9133,0.073 3.8265,0.146 5.739,0.219 0.0934,0.205 0.1864,0.41 0.2793,0.615 2.82,0.108 5.6399,0.215 8.459,0.322 0.0035,-0.101 0.0074,-0.201 0.0117,-0.302 0.302,0.011 0.604,0.023 0.9055,0.035 0.0039,-0.102 0.0082,-0.202 0.0117,-0.303 2.316,0.088 4.632,0.176 6.948,0.264 0.907,0.035 1.813,0.069 2.719,0.104 -0.004,0.101 -0.008,0.201 -0.012,0.302 0.201,0.008 0.403,0.015 0.605,0.023 -0.005,0.101 -0.009,0.202 -0.012,0.303 1.208,0.045 2.417,0.091 3.625,0.137 -0.004,0.101 -0.008,0.201 -0.012,0.302 0.202,0.008 0.403,0.016 0.604,0.023 -0.003,0.101 -0.007,0.202 -0.011,0.302 1.006,0.038 2.014,0.077 3.02,0.115 -0.003,0.101 -0.007,0.202 -0.011,0.302 0.202,0.008 0.403,0.015 0.605,0.023 -0.004,0.101 -0.008,0.202 -0.012,0.302 1.208,0.046 2.417,0.092 3.625,0.138 -0.004,0.101 -0.008,0.202 -0.012,0.302 0.202,0.008 0.403,0.016 0.605,0.023 -0.004,0.101 -0.008,0.201 -0.012,0.302 0.806,0.03 1.611,0.061 2.417,0.092 -0.004,0.101 -0.008,0.202 -0.012,0.303 0.202,0.007 0.403,0.014 0.605,0.022 -0.005,0.101 -0.008,0.201 -0.012,0.302 1.007,0.039 2.014,0.077 3.021,0.115 0.093,0.205 0.185,0.411 0.279,0.616 1.107,0.042 2.215,0.084 3.323,0.126 0.093,0.205 0.186,0.411 0.279,0.616 2.114,0.08 4.229,0.161 6.343,0.241 -0.004,0.101 -0.007,0.201 -0.011,0.302 2.014,0.077 4.028,0.154 6.042,0.23 -0.004,0.101 -0.008,0.201 -0.012,0.302 0.303,0.011 0.604,0.022 0.906,0.034 1.309,0.05 2.618,0.1 3.928,0.149 -0.004,0.102 -0.008,0.203 -0.012,0.303 0.201,0.008 0.402,0.015 0.604,0.023 -0.004,0.101 -0.008,0.201 -0.011,0.302 0.402,0.015 0.805,0.031 1.208,0.047 -0.004,0.1 -0.008,0.2 -0.012,0.301 0.201,0.008 0.403,0.016 0.604,0.024 -0.003,0.1 -0.007,0.201 -0.011,0.301 0.806,0.031 1.611,0.062 2.417,0.092 0.093,0.206 0.186,0.41 0.279,0.616 2.114,0.08 4.229,0.161 6.343,0.241 3.02,0.115 6.043,0.23 9.063,0.345 -0.004,0.101 -0.008,0.201 -0.012,0.302 0.202,0.007 0.403,0.015 0.605,0.023 -0.004,0.1 -0.009,0.201 -0.012,0.302 1.108,0.042 2.215,0.084 3.323,0.126 2.115,0.081 4.229,0.161 6.344,0.241 0.092,0.206 0.186,0.411 0.278,0.616 2.518,0.096 5.036,0.192 7.552,0.288 -0.004,0.1 -0.008,0.201 -0.011,0.302 0.302,0.011 0.604,0.023 0.906,0.034 -0.003,0.101 -0.007,0.202 -0.012,0.302 1.31,0.05 2.619,0.1 3.928,0.15 -0.004,0.1 -0.008,0.201 -0.012,0.302 0.302,0.011 0.605,0.022 0.906,0.034 -0.004,0.101 -0.007,0.201 -0.011,0.303 1.309,0.049 2.619,0.099 3.926,0.149 -0.003,0.101 -0.006,0.201 -0.01,0.302 0.201,0.008 0.403,0.015 0.604,0.023 -0.004,0.1 -0.008,0.201 -0.012,0.302 3.524,0.134 7.049,0.268 10.574,0.402 0.091,0.205 0.185,0.41 0.278,0.616 3.814,0.447 7.63,0.895 11.444,1.343 -0.003,0.1 -0.008,0.201 -0.011,0.302 0.504,0.018 1.007,0.037 1.51,0.057 -0.004,0.1 -0.008,0.201 -0.011,0.302 0.302,0.012 0.604,0.023 0.906,0.034 -0.003,0.102 -0.007,0.202 -0.012,0.302 0.807,0.031 1.612,0.062 2.417,0.092 -0.004,0.101 -0.007,0.202 -0.012,0.303 0.202,0.008 0.404,0.015 0.605,0.023 -0.004,0.1 -0.008,0.201 -0.012,0.301 1.306,0.152 2.611,0.302 3.916,0.452 -0.004,0.101 -0.008,0.202 -0.011,0.302 0.608,-0.077 1.215,-0.156 1.824,-0.234 -0.005,0.102 -0.008,0.203 -0.012,0.303 0.201,0.008 0.403,0.016 0.604,0.023 -0.003,0.101 -0.007,0.201 -0.01,0.302 1.092,0.259 1.563,-1.402 3.356,-0.78 -0.004,0.101 -0.008,0.202 -0.011,0.302 0.302,0.012 0.604,0.023 0.906,0.035 -0.004,0.1 -0.008,0.201 -0.012,0.302 1.107,0.042 2.216,0.084 3.323,0.127 -0.004,0.1 -0.008,0.2 -0.012,0.302 0.303,0.011 0.606,0.023 0.907,0.034 -0.004,0.1 -0.008,0.202 -0.011,0.302 0.704,0.027 1.409,0.054 2.114,0.08 -0.004,0.101 -0.008,0.202 -0.011,0.302 0.6,0.124 1.2,0.248 1.8,0.371 -0.011,0.303 -0.023,0.604 -0.035,0.907 1.358,0.091 1.82,0.409 2.696,0.707 1.209,0.046 2.417,0.092 3.626,0.138 -0.003,0.101 -0.007,0.202 -0.011,0.303 0.717,0.195 0.8,-0.279 1.219,-0.257 0.101,0.004 0.202,0.008 0.302,0.012 -0.004,0.101 -0.007,0.201 -0.011,0.302 0.604,0.023 1.207,0.045 1.813,0.069 -0.004,0.101 -0.008,0.201 -0.012,0.302 1.212,-0.055 2.424,-0.11 3.636,-0.164 4.052,0.061 7.715,0.283 10.91,-0.493 3.321,0.126 6.646,0.253 9.968,0.38 -0.004,0.1 -0.008,0.201 -0.012,0.302 0.605,0.022 1.209,0.045 1.813,0.069 0.004,-0.102 0.008,-0.202 0.011,-0.303 0.102,0.004 0.202,0.008 0.303,0.012 -0.005,0.1 -0.008,0.201 -0.012,0.302 0.706,0.027 1.411,0.053 2.115,0.08 0.004,-0.1 0.007,-0.201 0.011,-0.302 0.806,0.031 1.612,0.061 2.416,0.092 0.004,-0.101 0.008,-0.201 0.012,-0.302 1.108,0.042 2.216,0.084 3.323,0.126 0.004,-0.1 0.008,-0.201 0.011,-0.301 0.202,0.007 0.403,0.014 0.605,0.022 0.004,-0.1 0.007,-0.201 0.01,-0.301 1.008,0.038 2.015,0.076 3.022,0.114 0.005,-0.1 0.009,-0.201 0.012,-0.302 1.006,0.038 2.014,0.076 3.02,0.115 0.004,-0.101 0.008,-0.202 0.012,-0.302 0.504,0.019 1.008,0.039 1.51,0.057 0.003,-0.1 0.008,-0.201 0.011,-0.302 0.907,0.034 1.813,0.069 2.719,0.104 0.004,-0.101 0.009,-0.202 0.012,-0.302 1.01,-0.062 2.021,-0.126 3.033,-0.188 -0.005,0.101 -0.009,0.202 -0.012,0.302 1.506,0.159 3.013,0.317 4.52,0.475 0.004,-0.101 0.008,-0.201 0.011,-0.302 0.503,0.019 1.006,0.038 1.51,0.058 0.004,-0.101 0.008,-0.202 0.012,-0.303 1.108,0.042 2.215,0.084 3.323,0.126 0.004,-0.1 0.008,-0.201 0.012,-0.302 0.905,0.034 1.812,0.069 2.718,0.104 0.004,-0.101 0.008,-0.202 0.011,-0.302 0.403,0.015 0.806,0.03 1.209,0.046 0.003,-0.1 0.007,-0.201 0.012,-0.303 0.906,0.035 1.813,0.069 2.718,0.104 0.004,-0.101 0.007,-0.201 0.012,-0.302 0.604,0.023 1.208,0.046 1.812,0.068 0.109,-0.197 0.216,-0.394 0.325,-0.592 0.403,0.016 0.805,0.031 1.208,0.046 0.109,-0.197 0.216,-0.395 0.326,-0.592 0.567,-0.297 1.271,-0.221 2.125,-0.222" /><path
           inkscape:connector-curvature="0"
           id="path22"
           style="fill:#3fb83d;fill-opacity:1;fill-rule:evenodd;stroke:none"
           d="m 288.393,140.637 c 0.148,-0.129 0.378,-0.56 0.906,-0.302 0,0.101 0,0.202 0,0.302 -0.303,0 -0.605,0 -0.906,0" /><path
           inkscape:connector-curvature="0"
           id="path24"
           style="fill:#3fb83d;fill-opacity:1;fill-rule:evenodd;stroke:none"
           d="m 322.854,130.661 c 0,-0.201 0,-0.403 0,-0.604 0.101,0 0.202,0 0.302,0 0,0.201 0,0.403 0,0.604 -0.1,0 -0.201,0 -0.302,0" /><path
           inkscape:connector-curvature="0"
           id="path26"
           style="fill:#3fb83d;fill-opacity:1;fill-rule:evenodd;stroke:none"
           d="m 43.5309,60.5281 c 0.3441,-0.3441 7e-4,-0.1199 0.6046,-0.3019 -0.3445,0.3449 -0.0011,0.1199 -0.6046,0.3019" /><path
           inkscape:connector-curvature="0"
           id="path28"
           style="fill:#3fb83d;fill-opacity:1;fill-rule:evenodd;stroke:none"
           d="m 50.7855,60.5281 c 0.345,-0.3441 0.0016,-0.1199 0.6051,-0.3019 -0.3441,0.3449 -0.0011,0.1199 -0.6051,0.3019" /><path
           inkscape:connector-curvature="0"
           id="path30"
           style="opacity:1;fill:#e4f363;fill-opacity:1;fill-rule:nonzero;stroke:none"
           d="m 217.252,173.481 c 1.916,-12.077 1.366,-28.453 -1.814,-45.017 9.272,-2.147 17.737,-4.739 24.537,-7.932 10.494,17.015 14.996,37.667 11.92,59.297 z M 203.075,87.7301 c 12.88,5.6148 23.647,14.6889 31.988,25.6879 -6.173,3.011 -13.441,5.527 -21.462,7.312 -2.015,-11.614 -5.567,-22.9179 -10.526,-32.9999 z m 47.246,100.6879 c -4.794,21.316 -16.325,39.031 -32.171,51.22 -5.225,-5.397 -12.221,-10.822 -20.129,-16.118 8.559,-14.411 14.829,-29.243 17.657,-41.449 z M 183.43,80.2832 c 2.863,0.5238 5.674,1.3359 8.717,2.4848 6.077,12.0629 10.64,25.919 13.433,39.747 -10.365,1.654 -20.753,1.82 -30.019,0.715 z m 27.606,164.2648 c -11.699,7.326 -24.983,11.994 -39.069,12.964 7.872,-7.435 15.539,-16.98 21.828,-27.072 6.866,4.514 12.769,9.442 17.241,14.108 z m -43.03,-80.089 5.929,-32.354 c 9.838,1.211 21.53,0.395 33.249,-2.193 2.634,14.687 3.266,29.007 1.478,41.996 z m -1.573,8.589 40.655,7.45 c -3.038,13.351 -8.652,26.231 -16.272,38.742 -10.041,-6.574 -20.682,-11.483 -30.312,-13.838 z m -7.555,41.229 c 9.344,2.303 19.23,6.482 28.05,11.649 -7.854,12.173 -17.215,22.888 -26.886,32.065 -3.254,-0.005 -6.17,-0.243 -9.033,-0.768 z m 8.093,-92.621 c -9.057,-2.251 -18.71,-6.092 -27.815,-11.312 7.513,-11.9389 16.694,-23.278 26.652,-32.4018 3.254,0.0047 6.17,0.243 9.033,0.768 z m -24.552,133.993 c -2.862,-0.524 -5.674,-1.335 -8.718,-2.485 -5.789,-12.01 -10.743,-25.347 -13.771,-39.514 10.079,-1.704 20.805,-2.106 30.359,-0.947 z M 118.76,155.435 c 2.934,-12.779 8.601,-25.945 16.273,-38.743 10.041,6.574 20.683,11.483 30.312,13.84 l -5.928,32.353 z m 33.155,48.392 c -9.839,-1.21 -21.53,-0.394 -33.249,2.193 -2.689,-14.4 -3.373,-28.434 -1.479,-41.996 l 40.656,7.45 z M 114.813,91.384 c 11.699,-7.3258 24.984,-11.993 39.017,-12.6762 -8.211,7.6684 -15.539,16.9781 -21.541,27.1242 -6.868,-4.514 -12.77,-9.4429 -17.476,-14.448 z m 7.908,157.104 c -12.827,-5.9 -23.5933,-14.975 -31.9355,-25.974 5.836,-2.777 13.1035,-5.293 21.1245,-7.078 2.301,11.667 6.086,23.31 10.811,33.052 z M 75.5277,147.514 c 4.7942,-21.317 16.3254,-39.03 32.1713,-51.2191 5.225,5.3971 12.221,10.8221 20.129,16.1171 -8.846,14.359 -15.167,29.477 -17.657,41.449 z m 33.0703,14.937 c -1.683,12.416 -1.081,28.506 1.813,45.016 -9.271,2.148 -17.7368,4.74 -24.536,7.934 C 75.3801,198.386 70.8777,177.734 73.9535,156.103 Z m 36.489,102.861 c 54.4,9.967 105.216,-25.11 115.183,-79.51 9.968,-54.399 -25.11,-105.2149 -79.509,-115.1809 -54.399,-9.968 -105.2145,25.109 -115.1817,79.5079 -9.968,54.4 25.1098,105.215 79.5077,115.183" /></g><g
         transform="translate(62.898738,205.57945)"
         id="g847"><path
           inkscape:connector-curvature="0"
           id="path32"
           style="fill:#129300;fill-opacity:1;fill-rule:nonzero;stroke:none"
           d="M 72.0777,33.8551 V 24.8109 H 85.6566 V 18.984 H 72.0777 V 1.31797 H 65.2223 V 39.9461 h 25.4445 v -6.091 H 72.0777" /><path
           inkscape:connector-curvature="0"
           id="path34"
           style="fill:#129300;fill-opacity:1;fill-rule:nonzero;stroke:none"
           d="m 107.8063,14.607 c -1.125,0.2282 -1.9688,0.343 -2.5313,0.343 -5.2035,0 -7.8047,-1.7051 -7.8047,-5.11484 0,-2.53203 1.4672,-3.79727 4.4031,-3.79727 3.9551,0 5.9329,1.97695 5.9329,5.93201 z M 108.4391,4.13906 C 107.8414,3.15508 106.8,2.35 105.3145,1.72617 c -1.486,-0.62304 -3.0368,-0.935154 -4.654,-0.935154 -3.0414,0 -5.4312,0.758984 -7.1714,2.280864 -1.7407,1.51914 -2.6106,3.67812 -2.6106,6.47226 0,3.26996 1.2262,5.82776 3.6781,7.67306 2.4524,1.8457 5.9368,2.7687 10.4547,2.7687 0.7735,0 1.6875,-0.132 2.7422,-0.3961 0,3.3231 -2.1008,4.984 -6.3015,4.984 -2.479,0 -4.5532,-0.4129 -6.2227,-1.2386 L 93.8055,28.45 c 2.2675,1.0898 4.9656,1.6352 8.0945,1.6352 4.3066,0 7.4617,-0.9813 9.4656,-2.9411 2.0039,-1.9601 3.0063,-5.673 3.0063,-11.1402 V 9.96602 c 0,-3.76094 0.7551,-6.12618 2.2676,-7.0918 -0.5454,-0.95039 -1.1516,-1.53516 -1.8196,-1.75313 -0.6683,-0.219918 -1.4332,-0.330074 -2.2937,-0.330074 -0.9492,0 -1.8024,0.351174 -2.5578,1.053904 -0.7559,0.70313 -1.2657,1.46797 -1.5293,2.29414" /><path
           inkscape:connector-curvature="0"
           id="path36"
           style="fill:#129300;fill-opacity:1;fill-rule:nonzero;stroke:none"
           d="m 138.604,1.29219 v 2.37265 c -0.932,-0.79062 -2.215,-1.46796 -3.85,-2.03086 -1.634,-0.5621 -3.137,-0.842964 -4.508,-0.842964 -6.557,0 -9.8355,3.480074 -9.8355,10.440984 v 18.325 h 6.5925 V 11.7332 c 0,-3.62109 1.625,-5.43203 4.877,-5.43203 1.494,0 2.883,0.38672 4.166,1.15977 1.283,0.77422 2.136,1.66992 2.558,2.69026 V 29.557 h 6.592 V 1.29219 h -6.592" /><path
           inkscape:connector-curvature="0"
           id="path38"
           style="fill:#129300;fill-opacity:1;fill-rule:nonzero;stroke:none"
           d="M 169.402,1.31797 V 17.6391 c 0,2.4078 -0.461,4.166 -1.384,5.2738 -0.923,1.107 -2.43,1.6609 -4.522,1.6609 -0.967,0 -2,-0.2726 -3.098,-0.8179 -1.099,-0.545 -1.956,-1.2207 -2.571,-2.0297 V 1.31797 h -6.592 V 29.557 h 4.746 l 1.213,-2.6371 c 1.793,2.1102 4.438,3.1653 7.936,3.1653 3.358,0 6.008,-1.0071 7.95,-3.0192 1.942,-2.014 2.914,-4.8211 2.914,-8.425 V 1.31797 h -6.592" /><path
           inkscape:connector-curvature="0"
           id="path40"
           style="fill:#129300;fill-opacity:1;fill-rule:nonzero;stroke:none"
           d="m 197.115,14.607 c -1.125,0.2282 -1.969,0.343 -2.531,0.343 -5.204,0 -7.805,-1.7051 -7.805,-5.11484 0,-2.53203 1.469,-3.79727 4.404,-3.79727 3.955,0 5.932,1.97695 5.932,5.93201 z M 197.748,4.13906 C 197.15,3.15508 196.109,2.35 194.625,1.72617 193.138,1.10313 191.588,0.791016 189.97,0.791016 c -3.041,0 -5.432,0.758984 -7.172,2.280864 -1.74,1.51914 -2.61,3.67812 -2.61,6.47226 0,3.26996 1.226,5.82776 3.678,7.67306 2.452,1.8457 5.936,2.7687 10.454,2.7687 0.773,0 1.687,-0.132 2.742,-0.3961 0,3.3231 -2.099,4.984 -6.301,4.984 -2.478,0 -4.552,-0.4129 -6.223,-1.2386 l -1.424,5.1148 c 2.268,1.0898 4.966,1.6352 8.095,1.6352 4.306,0 7.462,-0.9813 9.466,-2.9411 2.004,-1.9601 3.006,-5.673 3.006,-11.1402 V 9.96602 c 0,-3.76094 0.756,-6.12618 2.268,-7.0918 -0.545,-0.95039 -1.153,-1.53516 -1.82,-1.75313 -0.668,-0.219918 -1.432,-0.330074 -2.293,-0.330074 -0.95,0 -1.803,0.351174 -2.559,1.053904 -0.756,0.70313 -1.266,1.46797 -1.529,2.29414" /><path
           inkscape:connector-curvature="0"
           id="path42"
           style="fill:#129300;fill-opacity:1;fill-rule:nonzero;stroke:none"
           d="m 210.853,40.0781 6.592,1.5821 V 9.91406 c 0,-3.48086 1.037,-5.55508 3.111,-6.22304 -1.019,-1.93399 -2.76,-2.900004 -5.22,-2.900004 -2.989,0 -4.483,2.073824 -4.483,6.221874 V 40.0781" /><path
           inkscape:connector-curvature="0"
           id="path44"
           style="fill:#129300;fill-opacity:1;fill-rule:nonzero;stroke:none"
           d="m 229.733,40.5 c 1.055,0 1.955,-0.3738 2.702,-1.1219 0.747,-0.7472 1.121,-1.6472 1.121,-2.7019 0,-1.0543 -0.374,-1.9563 -1.121,-2.7024 -0.747,-0.7476 -1.647,-1.1207 -2.702,-1.1207 -1.055,0 -1.956,0.3731 -2.702,1.1207 -0.748,0.7461 -1.121,1.6481 -1.121,2.7024 0,1.0547 0.373,1.9547 1.121,2.7019 0.746,0.7481 1.647,1.1219 2.702,1.1219 z M 226.332,1.31797 V 24.152 h -3.613 v 5.405 h 10.284 V 1.31797 h -6.671" /><path
           inkscape:connector-curvature="0"
           id="path46"
           style="fill:#129300;fill-opacity:1;fill-rule:nonzero;stroke:none"
           d="m 254.678,14.607 c -1.125,0.2282 -1.968,0.343 -2.531,0.343 -5.203,0 -7.805,-1.7051 -7.805,-5.11484 0,-2.53203 1.468,-3.79727 4.404,-3.79727 3.955,0 5.932,1.97695 5.932,5.93201 z M 255.311,4.13906 C 254.713,3.15508 253.671,2.35 252.187,1.72617 250.701,1.10313 249.15,0.791016 247.533,0.791016 c -3.041,0 -5.432,0.758984 -7.172,2.280864 -1.74,1.51914 -2.61,3.67812 -2.61,6.47226 0,3.26996 1.225,5.82776 3.678,7.67306 2.451,1.8457 5.937,2.7687 10.454,2.7687 0.774,0 1.688,-0.132 2.743,-0.3961 0,3.3231 -2.101,4.984 -6.302,4.984 -2.479,0 -4.553,-0.4129 -6.223,-1.2386 l -1.424,5.1148 c 2.268,1.0898 4.966,1.6352 8.095,1.6352 4.307,0 7.462,-0.9813 9.466,-2.9411 2.004,-1.9601 3.006,-5.673 3.006,-11.1402 V 9.96602 c 0,-3.76094 0.756,-6.12618 2.267,-7.0918 -0.545,-0.95039 -1.151,-1.53516 -1.819,-1.75313 -0.668,-0.219918 -1.433,-0.330074 -2.294,-0.330074 -0.949,0 -1.802,0.351174 -2.558,1.053904 -0.755,0.70313 -1.265,1.46797 -1.529,2.29414" /></g></g></g></svg>